{
  "ic.webservice.payment.creditcard.interfaces.ipaymentservice.passcode": "30809159FD68464BbCee92CA5370d118",
  "ic.webservice.payment.creditcard.interfaces.iprofileservice.passcode": "e7a5ee7B031E4D02A722Ecc74a719817",
  "ic.webservice.payment.creditcard.interfaces.merchantid": "300206669"
}